{
    "version": "2.0.0",
    "tasks": [
        {
            "label": "accounts-server",
            "type": "npm",
            "script": "start:debug",
            "path": "packages/accounts-server/",
            "problemMatcher": []
        },
        {
            "label": "tenant-server",
            "type": "npm",
            "script": "start:debug",
            "path": "packages/tenant-server/",
            "problemMatcher": []
        },
        {
            "label": "accounts-client",
            "type": "npm",
            "script": "start",
            "path": "packages/accounts-ui/",
            "problemMatcher": []
        }
    ]
}