{
  "appId": "io.ionic.starter",
  "appName": "admin-ui",
  "bundledWebRuntime": true,
  "npmClient": "npm",
  "webDir": "www",
  "plugins": {
    "SplashScreen": {
      "launchShowDuration": 0
    }
  },
  "cordova": {},
  "linuxAndroidStudioPath": "/usr/bin/android-studio"
}
